<?xml version="1.0" encoding="utf-8"?>
<!-- Svg Vector Icons : http://www.onlinewebfonts.com/icon -->
<!DOCTYPE svg PUBLIC "-//W3C//DTD SVG 1.1//EN" "http://www.w3.org/Graphics/SVG/1.1/DTD/svg11.dtd">
<svg version="1.1"
    xmlns="http://www.w3.org/2000/svg" viewBox="0 0 1000 1000" enable-background="new 0 0 1000 1000" width="150" height="150">
    <g>
        <path d="M500,101.9c-106.3,0-206.3,41.4-281.5,116.6C143.3,293.6,101.9,393.7,101.9,500c0,106.3,41.4,206.3,116.6,281.6c75.2,75.2,175.2,116.6,281.6,116.6c106.3,0,206.3-41.5,281.6-116.6c75.2-75.3,116.6-175.3,116.6-281.6c0-106.3-41.5-206.3-116.6-281.5C706.3,143.3,606.3,101.9,500,101.9L500,101.9z M500,10L500,10c270.6,0,490,219.4,490,490c0,270.6-219.3,490-490,490C229.4,990,10,770.7,10,500C10,229.4,229.4,10,500,10L500,10z M305.6,389.5c1.3-46,6.8-81,16.3-104.9c9.6-24,24.9-45.3,46-64.1c21.1-18.8,44.5-32.7,70.4-41.7c25.8-8.9,53.1-13.4,81.9-13.4c58,0,106.4,17.1,145,51.2s57.9,79.7,57.9,136.5c0,25.6-4.9,48.7-14.8,69.4c-9.9,20.8-31,46.6-63.2,77.6c-32.2,31-53.6,52.9-64.2,66c-10.5,13.1-18.5,28.7-24,47c-5.4,18.1-7.2,18-7.2,27.6h-84.3c0-12.2,2.9-18.7,8.7-40c5.7-21.4,14.4-40.1,25.9-56c11.5-16,32.2-39.5,62.3-70.4c30-30.9,49.3-53.5,57.9-67.5c8.6-14,12.9-34.9,12.9-62.7s-9.9-52.3-29.7-73.7c-19.8-21.4-48.5-32.2-86.2-32.2c-84.9,0-127.4,50.4-127.4,151.3H305.6L305.6,389.5z M556.5,825.3h-92.9v-97.7h92.9V825.3L556.5,825.3z"/>
    </g>
</svg>