{
    "_": {
        "editor": {
            "view": {
                "view-show-grid": true,
                "view-snap-grid": true,
                "view-grid-size": "20",
                "view-node-status": true,
                "view-node-show-label": true,
                "view-show-tips": false,
                "view-show-welcome-tours": false
            }
        },
        "menu-menu-item-sidebar": true,
        "menu-menu-item-palette": false
    }
}